{
  "full_count": 17988,
  "version": 4,
  "29838234": [
    "C1E4F5",
    45.6716,
    -74.0286,
    89,
    0,
    0,
    "0000",
    "T-CYCV22",
    "",
    "",
    1634310078,
    "YMX",
    "",
    "",
    1,
    0,
    "PER180",
    0,
    ""
  ],
  "298227bf": [
    "C027BA",
    45.6864,
    -74.019,
    135,
    0,
    1,
    "0000",
    "T-CYMX10",
    "",
    "C-FPBD",
    1634310114,
    "YMX",
    "",
    "CS55149",
    1,
    0,
    "CS055149",
    0,
    "BBA"
  ],
  "29834c08": [
    "",
    45.6384,
    -74.0133,
    151,
    7600,
    292,
    "4232",
    "F-CYUL4",
    "CL30",
    "",
    1634310115,
    "",
    "",
    "",
    0,
    -1088,
    "CL30",
    0,
    ""
  ],
  "2983a8fd": [
    "C07CF6",
    45.6876,
    -73.9971,
    45,
    525,
    173,
    "4230",
    "F-CYMX2",
    "B763",
    "C-GVIJ",
    1634310107,
    "YMX",
    "YFB",
    "W81791",
    0,
    1984,
    "CJT1791",
    0,
    "CJT"
  ],
  "stats": {
    "total": {
      "ads-b": 15740,
      "mlat": 939,
      "faa": 489,
      "flarm": 262,
      "estimated": 238,
      "satellite": 265,
      "uat": 0,
      "other": 0
    },
    "visible": {
      "ads-b": 4,
      "mlat": 0,
      "faa": 0,
      "flarm": 0,
      "estimated": 0,
      "satellite": 0,
      "uat": 0,
      "other": 0
    }
  }
}
